module server

go 1.15

require (
	github.com/gin-contrib/cors v1.3.1
	github.com/gin-gonic/gin v1.7.1
	github.com/google/go-cmp v0.5.5
	github.com/google/uuid v1.2.0
	golang.org/x/xerrors v0.0.0-20191204190536-9bdfabe68543
)
